{
	"authHost": "",
	"authEndpoint": "/broadcasting/auth",
	"clients": [
		{
			"appId": "MyApp",
			"key": "70c091abc52bd8882af4e3f3ff5a0887"
		}
	],
	"database": "redis",
	"databaseConfig": {
		"redis": {
			"port": "6379",
			"host": "localhost"
		},
		"sqlite": {
			"databasePath": "/database/laravel-echo-server.sqlite"
		}
	},
	"devMode": true,
	"host": null,
	"port": "6001",
	"protocol": "http",
	"socketio": {},
	"sslCertPath": "",
	"sslKeyPath": "",
	"sslCertChainPath": "",
	"sslPassphrase": "",
	"subscribers": {
		"http": true,
		"redis": true
	},
	"apiOriginAllow": {
		"allowCors": true,
		"allowOrigin": "*",
		"allowMethods": "*",
		"allowHeaders": "*"
	}
}